%!PS-Adobe-3.0
%%Creator: PCBNEW
%%CreationDate: Tue Jul 18 00:42:25 2017
%%Title: /home/servus/Arduino/Ambilight/PCB/gerber/ambilight-drl_map.ps
%%Pages: 1
%%PageOrder: Ascend
%%BoundingBox: 0 0 596 842
%%DocumentMedia: A4 595 842 0 () ()
%%Orientation: Landscape
%%EndComments
%%BeginProlog
/line { newpath moveto lineto stroke } bind def
/cir0 { newpath 0 360 arc stroke } bind def
/cir1 { newpath 0 360 arc gsave fill grestore stroke } bind def
/cir2 { newpath 0 360 arc gsave fill grestore stroke } bind def
/arc0 { newpath arc stroke } bind def
/arc1 { newpath 4 index 4 index moveto arc closepath gsave fill
    grestore stroke } bind def
/arc2 { newpath 4 index 4 index moveto arc closepath gsave fill
    grestore stroke } bind def
/poly0 { stroke } bind def
/poly1 { closepath gsave fill grestore stroke } bind def
/poly2 { closepath gsave fill grestore stroke } bind def
/rect0 { rectstroke } bind def
/rect1 { rectfill } bind def
/rect2 { rectfill } bind def
/linemode0 { 0 setlinecap 0 setlinejoin 0 setlinewidth } bind def
/linemode1 { 1 setlinecap 1 setlinejoin } bind def
/dashedline { [200] 100 setdash } bind def
/solidline { [] 0 setdash } bind def
/phantomshow { moveto
    /KicadFont findfont 0.000001 scalefont setfont
    show } bind def
/textshow { gsave
    findfont exch scalefont setfont concat 1 scale 0 0 moveto show
    } bind def
/reencodefont {
  findfont dup length dict begin
  { 1 index /FID ne
    { def }
    { pop pop } ifelse
  } forall
  /Encoding ISOLatin1Encoding def
  currentdict
  end } bind def
/KicadFont /Helvetica reencodefont definefont pop
/KicadFont-Bold /Helvetica-Bold reencodefont definefont pop
/KicadFont-Oblique /Helvetica-Oblique reencodefont definefont pop
/KicadFont-BoldOblique /Helvetica-BoldOblique reencodefont definefont pop
%%EndProlog
%%Page: 1 1
%%BeginPageSetup
gsave
0.0072 0.0072 scale
linemode1
82680 0 translate 90 rotate
113.045 setlinewidth
%%EndPageSetup
0 0 0 setrgbcolor
133.517 setlinewidth
newpath
86952.3 37075.8 moveto
86952.3 78676.2 lineto
stroke
0 0 0 setrgbcolor
newpath
29977.7 37075.8 moveto
86952.3 37075.8 lineto
stroke
0 0 0 setrgbcolor
newpath
29977.7 78676.2 moveto
29977.7 37075.8 lineto
stroke
0 0 0 setrgbcolor
newpath
86952.3 78676.2 moveto
29977.7 78676.2 lineto
stroke
78.7397 setlinewidth
newpath
44543.6 72701.8 moveto
45255.7 71989.7 lineto
stroke
newpath
45255.7 72701.8 moveto
44543.6 71989.7 lineto
stroke
newpath
44543.6 70440.9 moveto
45255.7 69728.8 lineto
stroke
newpath
45255.7 70440.9 moveto
44543.6 69728.8 lineto
stroke
newpath
44543.6 68180 moveto
45255.7 67467.9 lineto
stroke
newpath
45255.7 68180 moveto
44543.6 67467.9 lineto
stroke
newpath
44543.6 65919.1 moveto
45255.7 65207 lineto
stroke
newpath
45255.7 65919.1 moveto
44543.6 65207 lineto
stroke
newpath
44543.6 63658.2 moveto
45255.7 62946.1 lineto
stroke
newpath
45255.7 63658.2 moveto
44543.6 62946.1 lineto
stroke
newpath
44543.6 61397.3 moveto
45255.7 60685.2 lineto
stroke
newpath
45255.7 61397.3 moveto
44543.6 60685.2 lineto
stroke
newpath
44543.6 59136.4 moveto
45255.7 58424.3 lineto
stroke
newpath
45255.7 59136.4 moveto
44543.6 58424.3 lineto
stroke
newpath
44543.6 56875.5 moveto
45255.7 56163.4 lineto
stroke
newpath
45255.7 56875.5 moveto
44543.6 56163.4 lineto
stroke
newpath
44543.6 54614.6 moveto
45255.7 53902.5 lineto
stroke
newpath
45255.7 54614.6 moveto
44543.6 53902.5 lineto
stroke
newpath
44543.6 52353.7 moveto
45255.7 51641.6 lineto
stroke
newpath
45255.7 52353.7 moveto
44543.6 51641.6 lineto
stroke
newpath
44543.6 50092.8 moveto
45255.7 49380.7 lineto
stroke
newpath
45255.7 50092.8 moveto
44543.6 49380.7 lineto
stroke
newpath
44543.6 47831.9 moveto
45255.7 47119.8 lineto
stroke
newpath
45255.7 47831.9 moveto
44543.6 47119.8 lineto
stroke
newpath
44543.6 45571 moveto
45255.7 44858.9 lineto
stroke
newpath
45255.7 45571 moveto
44543.6 44858.9 lineto
stroke
newpath
44543.6 43310.1 moveto
45255.7 42598 lineto
stroke
newpath
45255.7 43310.1 moveto
44543.6 42598 lineto
stroke
newpath
44543.6 41049.2 moveto
45255.7 40337.2 lineto
stroke
newpath
45255.7 41049.2 moveto
44543.6 40337.2 lineto
stroke
newpath
58109 72701.8 moveto
58821 71989.7 lineto
stroke
newpath
58821 72701.8 moveto
58109 71989.7 lineto
stroke
newpath
58109 70440.9 moveto
58821 69728.8 lineto
stroke
newpath
58821 70440.9 moveto
58109 69728.8 lineto
stroke
newpath
58109 68180 moveto
58821 67467.9 lineto
stroke
newpath
58821 68180 moveto
58109 67467.9 lineto
stroke
newpath
58109 65919.1 moveto
58821 65207 lineto
stroke
newpath
58821 65919.1 moveto
58109 65207 lineto
stroke
newpath
58109 63658.2 moveto
58821 62946.1 lineto
stroke
newpath
58821 63658.2 moveto
58109 62946.1 lineto
stroke
newpath
58109 61397.3 moveto
58821 60685.2 lineto
stroke
newpath
58821 61397.3 moveto
58109 60685.2 lineto
stroke
newpath
58109 59136.4 moveto
58821 58424.3 lineto
stroke
newpath
58821 59136.4 moveto
58109 58424.3 lineto
stroke
newpath
58109 56875.5 moveto
58821 56163.4 lineto
stroke
newpath
58821 56875.5 moveto
58109 56163.4 lineto
stroke
newpath
58109 54614.6 moveto
58821 53902.5 lineto
stroke
newpath
58821 54614.6 moveto
58109 53902.5 lineto
stroke
newpath
58109 52353.7 moveto
58821 51641.6 lineto
stroke
newpath
58821 52353.7 moveto
58109 51641.6 lineto
stroke
newpath
58109 50092.8 moveto
58821 49380.7 lineto
stroke
newpath
58821 50092.8 moveto
58109 49380.7 lineto
stroke
newpath
58109 47831.9 moveto
58821 47119.8 lineto
stroke
newpath
58821 47831.9 moveto
58109 47119.8 lineto
stroke
newpath
58109 45571 moveto
58821 44858.9 lineto
stroke
newpath
58821 45571 moveto
58109 44858.9 lineto
stroke
newpath
58109 43310.1 moveto
58821 42598 lineto
stroke
newpath
58821 43310.1 moveto
58109 42598 lineto
stroke
newpath
58109 41049.2 moveto
58821 40337.2 lineto
stroke
newpath
58821 41049.2 moveto
58109 40337.2 lineto
stroke
34047.3 56971.6 445.058 cir0
34047.3 54710.7 445.058 cir0
34047.3 52449.9 445.058 cir0
63439 70084.8 445.058 cir0
63439 67823.9 445.058 cir0
70673.8 49284.6 445.058 cir0
newpath
69783.7 48878.9 moveto
71563.9 48878.9 lineto
stroke
newpath
69783.7 49690.3 moveto
71563.9 49690.3 lineto
stroke
71563.9 49284.6 405.688 270 450 arc0
69783.7 49284.6 405.688 90 270 arc0
70673.8 43943.9 445.058 cir0
newpath
69783.7 43538.2 moveto
71563.9 43538.2 lineto
stroke
newpath
69783.7 44349.6 moveto
71563.9 44349.6 lineto
stroke
71563.9 43943.9 405.688 270 450 arc0
69783.7 43943.9 405.688 90 270 arc0
74857.4 46614.3 445.058 cir0
newpath
75263.1 45724.1 moveto
75263.1 47504.4 lineto
stroke
newpath
74451.7 45724.1 moveto
74451.7 47504.4 lineto
stroke
74857.4 47504.4 405.688 360 540 arc0
74857.4 45724.1 405.688 180 360 arc0
82882.7 56971.6 445.058 cir0
82882.7 54710.7 445.058 cir0
82882.7 52449.9 445.058 cir0
newpath
39473.5 61123.1 moveto
39473.5 60055 lineto
stroke
newpath
38939.4 60589.1 moveto
40007.6 60589.1 lineto
stroke
newpath
39473.5 47557.8 moveto
39473.5 46489.6 lineto
stroke
newpath
38939.4 47023.7 moveto
40007.6 47023.7 lineto
stroke
newpath
73839.1 70512.1 moveto
73839.1 69443.9 lineto
stroke
newpath
73305 69978 moveto
74373.2 69978 lineto
stroke
newpath
73839.1 63836.2 moveto
73839.1 62768.1 lineto
stroke
newpath
73305 63302.1 moveto
74373.2 63302.1 lineto
stroke
newpath
34150 74503.9 moveto
34150 76518 lineto
32135.9 76518 lineto
32135.9 74503.9 lineto
34150 74503.9 lineto
poly0
newpath
34150 39234 moveto
34150 41248.1 lineto
32135.9 41248.1 lineto
32135.9 39234 lineto
34150 39234 lineto
poly0
newpath
84794.1 74503.9 moveto
84794.1 76518 lineto
82780 76518 lineto
82780 74503.9 lineto
84794.1 74503.9 lineto
poly0
newpath
84794.1 39234 moveto
84794.1 41248.1 lineto
82780 41248.1 lineto
82780 39234 lineto
84794.1 39234 lineto
poly0
118.11 setlinewidth
newpath
30979.6 35175.5 moveto
30979.6 36356.6 lineto
31260.8 36356.6 lineto
31429.5 36300.3 lineto
31542 36187.9 lineto
31598.3 36075.4 lineto
31654.5 35850.4 lineto
31654.5 35681.7 lineto
31598.3 35456.7 lineto
31542 35344.2 lineto
31429.5 35231.7 lineto
31260.8 35175.5 lineto
30979.6 35175.5 lineto
stroke
newpath
32160.7 35175.5 moveto
32160.7 35962.9 lineto
stroke
newpath
32160.7 35737.9 moveto
32216.9 35850.4 lineto
32273.2 35906.6 lineto
32385.7 35962.9 lineto
32498.1 35962.9 lineto
stroke
newpath
32891.8 35175.5 moveto
32891.8 35962.9 lineto
stroke
newpath
32891.8 36356.6 moveto
32835.6 36300.3 lineto
32891.8 36244.1 lineto
32948.1 36300.3 lineto
32891.8 36356.6 lineto
32891.8 36244.1 lineto
stroke
newpath
33623 35175.5 moveto
33510.5 35231.7 lineto
33454.3 35344.2 lineto
33454.3 36356.6 lineto
stroke
newpath
34241.7 35175.5 moveto
34129.2 35231.7 lineto
34072.9 35344.2 lineto
34072.9 36356.6 lineto
stroke
newpath
35591.5 35175.5 moveto
35591.5 36356.6 lineto
35985.2 35512.9 lineto
36378.9 36356.6 lineto
36378.9 35175.5 lineto
stroke
newpath
37447.5 35175.5 moveto
37447.5 35794.2 lineto
37391.3 35906.6 lineto
37278.8 35962.9 lineto
37053.8 35962.9 lineto
36941.3 35906.6 lineto
stroke
newpath
37447.5 35231.7 moveto
37335 35175.5 lineto
37053.8 35175.5 lineto
36941.3 35231.7 lineto
36885.1 35344.2 lineto
36885.1 35456.7 lineto
36941.3 35569.2 lineto
37053.8 35625.4 lineto
37335 35625.4 lineto
37447.5 35681.7 lineto
stroke
newpath
38010 35962.9 moveto
38010 34781.8 lineto
stroke
newpath
38010 35906.6 moveto
38122.4 35962.9 lineto
38347.4 35962.9 lineto
38459.9 35906.6 lineto
38516.1 35850.4 lineto
38572.4 35737.9 lineto
38572.4 35400.5 lineto
38516.1 35288 lineto
38459.9 35231.7 lineto
38347.4 35175.5 lineto
38122.4 35175.5 lineto
38010 35231.7 lineto
stroke
newpath
39078.6 35288 moveto
39134.8 35231.7 lineto
39078.6 35175.5 lineto
39022.3 35231.7 lineto
39078.6 35288 lineto
39078.6 35175.5 lineto
stroke
newpath
39078.6 35906.6 moveto
39134.8 35850.4 lineto
39078.6 35794.2 lineto
39022.3 35850.4 lineto
39078.6 35906.6 lineto
39078.6 35794.2 lineto
stroke
newpath
29198.9 33585.5 moveto
29911 32873.4 lineto
stroke
newpath
29911 33585.5 moveto
29198.9 32873.4 lineto
stroke
newpath
31204.6 33876.3 moveto
31317 33876.3 lineto
31429.5 33820 lineto
31485.8 33763.8 lineto
31542 33651.3 lineto
31598.3 33426.3 lineto
31598.3 33145.1 lineto
31542 32920.1 lineto
31485.8 32807.7 lineto
31429.5 32751.4 lineto
31317 32695.2 lineto
31204.6 32695.2 lineto
31092.1 32751.4 lineto
31035.8 32807.7 lineto
30979.6 32920.1 lineto
30923.3 33145.1 lineto
30923.3 33426.3 lineto
30979.6 33651.3 lineto
31035.8 33763.8 lineto
31092.1 33820 lineto
31204.6 33876.3 lineto
stroke
newpath
32104.4 32807.7 moveto
32160.7 32751.4 lineto
32104.4 32695.2 lineto
32048.2 32751.4 lineto
32104.4 32807.7 lineto
32104.4 32695.2 lineto
stroke
newpath
32835.6 33370.1 moveto
32723.1 33426.3 lineto
32666.9 33482.6 lineto
32610.6 33595.1 lineto
32610.6 33651.3 lineto
32666.9 33763.8 lineto
32723.1 33820 lineto
32835.6 33876.3 lineto
33060.6 33876.3 lineto
33173.1 33820 lineto
33229.3 33763.8 lineto
33285.5 33651.3 lineto
33285.5 33595.1 lineto
33229.3 33482.6 lineto
33173.1 33426.3 lineto
33060.6 33370.1 lineto
32835.6 33370.1 lineto
32723.1 33313.8 lineto
32666.9 33257.6 lineto
32610.6 33145.1 lineto
32610.6 32920.1 lineto
32666.9 32807.7 lineto
32723.1 32751.4 lineto
32835.6 32695.2 lineto
33060.6 32695.2 lineto
33173.1 32751.4 lineto
33229.3 32807.7 lineto
33285.5 32920.1 lineto
33285.5 33145.1 lineto
33229.3 33257.6 lineto
33173.1 33313.8 lineto
33060.6 33370.1 lineto
stroke
newpath
34016.7 33876.3 moveto
34129.2 33876.3 lineto
34241.7 33820 lineto
34297.9 33763.8 lineto
34354.2 33651.3 lineto
34410.4 33426.3 lineto
34410.4 33145.1 lineto
34354.2 32920.1 lineto
34297.9 32807.7 lineto
34241.7 32751.4 lineto
34129.2 32695.2 lineto
34016.7 32695.2 lineto
33904.2 32751.4 lineto
33848 32807.7 lineto
33791.7 32920.1 lineto
33735.5 33145.1 lineto
33735.5 33426.3 lineto
33791.7 33651.3 lineto
33848 33763.8 lineto
33904.2 33820 lineto
34016.7 33876.3 lineto
stroke
newpath
34916.6 32695.2 moveto
34916.6 33482.6 lineto
stroke
newpath
34916.6 33370.1 moveto
34972.8 33426.3 lineto
35085.3 33482.6 lineto
35254 33482.6 lineto
35366.5 33426.3 lineto
35422.8 33313.8 lineto
35422.8 32695.2 lineto
stroke
newpath
35422.8 33313.8 moveto
35479 33426.3 lineto
35591.5 33482.6 lineto
35760.2 33482.6 lineto
35872.7 33426.3 lineto
35929 33313.8 lineto
35929 32695.2 lineto
stroke
newpath
36491.4 32695.2 moveto
36491.4 33482.6 lineto
stroke
newpath
36491.4 33370.1 moveto
36547.6 33426.3 lineto
36660.1 33482.6 lineto
36828.9 33482.6 lineto
36941.3 33426.3 lineto
36997.6 33313.8 lineto
36997.6 32695.2 lineto
stroke
newpath
36997.6 33313.8 moveto
37053.8 33426.3 lineto
37166.3 33482.6 lineto
37335 33482.6 lineto
37447.5 33426.3 lineto
37503.8 33313.8 lineto
37503.8 32695.2 lineto
stroke
newpath
39809.7 33932.5 moveto
38797.4 32414 lineto
stroke
newpath
41328.3 33876.3 moveto
41440.8 33876.3 lineto
41553.3 33820 lineto
41609.5 33763.8 lineto
41665.7 33651.3 lineto
41722 33426.3 lineto
41722 33145.1 lineto
41665.7 32920.1 lineto
41609.5 32807.7 lineto
41553.3 32751.4 lineto
41440.8 32695.2 lineto
41328.3 32695.2 lineto
41215.8 32751.4 lineto
41159.6 32807.7 lineto
41103.3 32920.1 lineto
41047.1 33145.1 lineto
41047.1 33426.3 lineto
41103.3 33651.3 lineto
41159.6 33763.8 lineto
41215.8 33820 lineto
41328.3 33876.3 lineto
stroke
newpath
42228.2 32807.7 moveto
42284.4 32751.4 lineto
42228.2 32695.2 lineto
42171.9 32751.4 lineto
42228.2 32807.7 lineto
42228.2 32695.2 lineto
stroke
newpath
43015.6 33876.3 moveto
43128.1 33876.3 lineto
43240.5 33820 lineto
43296.8 33763.8 lineto
43353 33651.3 lineto
43409.3 33426.3 lineto
43409.3 33145.1 lineto
43353 32920.1 lineto
43296.8 32807.7 lineto
43240.5 32751.4 lineto
43128.1 32695.2 lineto
43015.6 32695.2 lineto
42903.1 32751.4 lineto
42846.8 32807.7 lineto
42790.6 32920.1 lineto
42734.4 33145.1 lineto
42734.4 33426.3 lineto
42790.6 33651.3 lineto
42846.8 33763.8 lineto
42903.1 33820 lineto
43015.6 33876.3 lineto
stroke
newpath
43803 33876.3 moveto
44534.1 33876.3 lineto
44140.4 33426.3 lineto
44309.2 33426.3 lineto
44421.7 33370.1 lineto
44477.9 33313.8 lineto
44534.1 33201.4 lineto
44534.1 32920.1 lineto
44477.9 32807.7 lineto
44421.7 32751.4 lineto
44309.2 32695.2 lineto
43971.7 32695.2 lineto
43859.2 32751.4 lineto
43803 32807.7 lineto
stroke
newpath
45659 32695.2 moveto
44984.1 32695.2 lineto
stroke
newpath
45321.5 32695.2 moveto
45321.5 33876.3 lineto
45209.1 33707.5 lineto
45096.6 33595.1 lineto
44984.1 33538.8 lineto
stroke
newpath
46108.9 33876.3 moveto
46108.9 33651.3 lineto
stroke
newpath
46558.9 33876.3 moveto
46558.9 33651.3 lineto
stroke
newpath
48302.4 32245.2 moveto
48246.2 32301.5 lineto
48133.7 32470.2 lineto
48077.4 32582.7 lineto
48021.2 32751.4 lineto
47965 33032.6 lineto
47965 33257.6 lineto
48021.2 33538.8 lineto
48077.4 33707.5 lineto
48133.7 33820 lineto
48246.2 33988.8 lineto
48302.4 34045 lineto
stroke
newpath
48639.9 33876.3 moveto
49371 33876.3 lineto
48977.3 33426.3 lineto
49146.1 33426.3 lineto
49258.5 33370.1 lineto
49314.8 33313.8 lineto
49371 33201.4 lineto
49371 32920.1 lineto
49314.8 32807.7 lineto
49258.5 32751.4 lineto
49146.1 32695.2 lineto
48808.6 32695.2 lineto
48696.1 32751.4 lineto
48639.9 32807.7 lineto
stroke
newpath
50102.2 33876.3 moveto
50214.7 33876.3 lineto
50327.2 33820 lineto
50383.4 33763.8 lineto
50439.6 33651.3 lineto
50495.9 33426.3 lineto
50495.9 33145.1 lineto
50439.6 32920.1 lineto
50383.4 32807.7 lineto
50327.2 32751.4 lineto
50214.7 32695.2 lineto
50102.2 32695.2 lineto
49989.7 32751.4 lineto
49933.5 32807.7 lineto
49877.2 32920.1 lineto
49821 33145.1 lineto
49821 33426.3 lineto
49877.2 33651.3 lineto
49933.5 33763.8 lineto
49989.7 33820 lineto
50102.2 33876.3 lineto
stroke
newpath
51902 32695.2 moveto
51902 33876.3 lineto
stroke
newpath
52408.2 32695.2 moveto
52408.2 33313.8 lineto
52351.9 33426.3 lineto
52239.4 33482.6 lineto
52070.7 33482.6 lineto
51958.2 33426.3 lineto
51902 33370.1 lineto
stroke
newpath
53139.3 32695.2 moveto
53026.8 32751.4 lineto
52970.6 32807.7 lineto
52914.3 32920.1 lineto
52914.3 33257.6 lineto
52970.6 33370.1 lineto
53026.8 33426.3 lineto
53139.3 33482.6 lineto
53308 33482.6 lineto
53420.5 33426.3 lineto
53476.8 33370.1 lineto
53533 33257.6 lineto
53533 32920.1 lineto
53476.8 32807.7 lineto
53420.5 32751.4 lineto
53308 32695.2 lineto
53139.3 32695.2 lineto
stroke
newpath
54207.9 32695.2 moveto
54095.4 32751.4 lineto
54039.2 32863.9 lineto
54039.2 33876.3 lineto
stroke
newpath
55107.8 32751.4 moveto
54995.3 32695.2 lineto
54770.4 32695.2 lineto
54657.9 32751.4 lineto
54601.6 32863.9 lineto
54601.6 33313.8 lineto
54657.9 33426.3 lineto
54770.4 33482.6 lineto
54995.3 33482.6 lineto
55107.8 33426.3 lineto
55164.1 33313.8 lineto
55164.1 33201.4 lineto
54601.6 33088.9 lineto
stroke
newpath
55614 32751.4 moveto
55726.5 32695.2 lineto
55951.5 32695.2 lineto
56063.9 32751.4 lineto
56120.2 32863.9 lineto
56120.2 32920.1 lineto
56063.9 33032.6 lineto
55951.5 33088.9 lineto
55782.7 33088.9 lineto
55670.2 33145.1 lineto
55614 33257.6 lineto
55614 33313.8 lineto
55670.2 33426.3 lineto
55782.7 33482.6 lineto
55951.5 33482.6 lineto
56063.9 33426.3 lineto
stroke
newpath
56513.9 32245.2 moveto
56570.1 32301.5 lineto
56682.6 32470.2 lineto
56738.9 32582.7 lineto
56795.1 32751.4 lineto
56851.3 33032.6 lineto
56851.3 33257.6 lineto
56795.1 33538.8 lineto
56738.9 33707.5 lineto
56682.6 33820 lineto
56570.1 33988.8 lineto
56513.9 34045 lineto
stroke
29465.9 31670.4 445.058 cir0
newpath
31598.3 31136.1 moveto
30923.3 31136.1 lineto
stroke
newpath
31260.8 31136.1 moveto
31260.8 32317.2 lineto
31148.3 32148.5 lineto
31035.8 32036 lineto
30923.3 31979.8 lineto
stroke
newpath
32104.4 31248.6 moveto
32160.7 31192.4 lineto
32104.4 31136.1 lineto
32048.2 31192.4 lineto
32104.4 31248.6 lineto
32104.4 31136.1 lineto
stroke
newpath
32891.8 32317.2 moveto
33004.3 32317.2 lineto
33116.8 32261 lineto
33173.1 32204.7 lineto
33229.3 32092.2 lineto
33285.5 31867.3 lineto
33285.5 31586.1 lineto
33229.3 31361.1 lineto
33173.1 31248.6 lineto
33116.8 31192.4 lineto
33004.3 31136.1 lineto
32891.8 31136.1 lineto
32779.4 31192.4 lineto
32723.1 31248.6 lineto
32666.9 31361.1 lineto
32610.6 31586.1 lineto
32610.6 31867.3 lineto
32666.9 32092.2 lineto
32723.1 32204.7 lineto
32779.4 32261 lineto
32891.8 32317.2 lineto
stroke
newpath
34016.7 32317.2 moveto
34129.2 32317.2 lineto
34241.7 32261 lineto
34297.9 32204.7 lineto
34354.2 32092.2 lineto
34410.4 31867.3 lineto
34410.4 31586.1 lineto
34354.2 31361.1 lineto
34297.9 31248.6 lineto
34241.7 31192.4 lineto
34129.2 31136.1 lineto
34016.7 31136.1 lineto
33904.2 31192.4 lineto
33848 31248.6 lineto
33791.7 31361.1 lineto
33735.5 31586.1 lineto
33735.5 31867.3 lineto
33791.7 32092.2 lineto
33848 32204.7 lineto
33904.2 32261 lineto
34016.7 32317.2 lineto
stroke
newpath
34916.6 31136.1 moveto
34916.6 31923.5 lineto
stroke
newpath
34916.6 31811 moveto
34972.8 31867.3 lineto
35085.3 31923.5 lineto
35254 31923.5 lineto
35366.5 31867.3 lineto
35422.8 31754.8 lineto
35422.8 31136.1 lineto
stroke
newpath
35422.8 31754.8 moveto
35479 31867.3 lineto
35591.5 31923.5 lineto
35760.2 31923.5 lineto
35872.7 31867.3 lineto
35929 31754.8 lineto
35929 31136.1 lineto
stroke
newpath
36491.4 31136.1 moveto
36491.4 31923.5 lineto
stroke
newpath
36491.4 31811 moveto
36547.6 31867.3 lineto
36660.1 31923.5 lineto
36828.9 31923.5 lineto
36941.3 31867.3 lineto
36997.6 31754.8 lineto
36997.6 31136.1 lineto
stroke
newpath
36997.6 31754.8 moveto
37053.8 31867.3 lineto
37166.3 31923.5 lineto
37335 31923.5 lineto
37447.5 31867.3 lineto
37503.8 31754.8 lineto
37503.8 31136.1 lineto
stroke
newpath
39809.7 32373.5 moveto
38797.4 30854.9 lineto
stroke
newpath
41328.3 32317.2 moveto
41440.8 32317.2 lineto
41553.3 32261 lineto
41609.5 32204.7 lineto
41665.7 32092.2 lineto
41722 31867.3 lineto
41722 31586.1 lineto
41665.7 31361.1 lineto
41609.5 31248.6 lineto
41553.3 31192.4 lineto
41440.8 31136.1 lineto
41328.3 31136.1 lineto
41215.8 31192.4 lineto
41159.6 31248.6 lineto
41103.3 31361.1 lineto
41047.1 31586.1 lineto
41047.1 31867.3 lineto
41103.3 32092.2 lineto
41159.6 32204.7 lineto
41215.8 32261 lineto
41328.3 32317.2 lineto
stroke
newpath
42228.2 31248.6 moveto
42284.4 31192.4 lineto
42228.2 31136.1 lineto
42171.9 31192.4 lineto
42228.2 31248.6 lineto
42228.2 31136.1 lineto
stroke
newpath
43015.6 32317.2 moveto
43128.1 32317.2 lineto
43240.5 32261 lineto
43296.8 32204.7 lineto
43353 32092.2 lineto
43409.3 31867.3 lineto
43409.3 31586.1 lineto
43353 31361.1 lineto
43296.8 31248.6 lineto
43240.5 31192.4 lineto
43128.1 31136.1 lineto
43015.6 31136.1 lineto
42903.1 31192.4 lineto
42846.8 31248.6 lineto
42790.6 31361.1 lineto
42734.4 31586.1 lineto
42734.4 31867.3 lineto
42790.6 32092.2 lineto
42846.8 32204.7 lineto
42903.1 32261 lineto
43015.6 32317.2 lineto
stroke
newpath
43803 32317.2 moveto
44534.1 32317.2 lineto
44140.4 31867.3 lineto
44309.2 31867.3 lineto
44421.7 31811 lineto
44477.9 31754.8 lineto
44534.1 31642.3 lineto
44534.1 31361.1 lineto
44477.9 31248.6 lineto
44421.7 31192.4 lineto
44309.2 31136.1 lineto
43971.7 31136.1 lineto
43859.2 31192.4 lineto
43803 31248.6 lineto
stroke
newpath
45096.6 31136.1 moveto
45321.5 31136.1 lineto
45434 31192.4 lineto
45490.3 31248.6 lineto
45602.8 31417.3 lineto
45659 31642.3 lineto
45659 32092.2 lineto
45602.8 32204.7 lineto
45546.5 32261 lineto
45434 32317.2 lineto
45209.1 32317.2 lineto
45096.6 32261 lineto
45040.3 32204.7 lineto
44984.1 32092.2 lineto
44984.1 31811 lineto
45040.3 31698.5 lineto
45096.6 31642.3 lineto
45209.1 31586.1 lineto
45434 31586.1 lineto
45546.5 31642.3 lineto
45602.8 31698.5 lineto
45659 31811 lineto
stroke
newpath
46108.9 32317.2 moveto
46108.9 32092.2 lineto
stroke
newpath
46558.9 32317.2 moveto
46558.9 32092.2 lineto
stroke
newpath
48302.4 30686.2 moveto
48246.2 30742.4 lineto
48133.7 30911.1 lineto
48077.4 31023.6 lineto
48021.2 31192.4 lineto
47965 31473.6 lineto
47965 31698.5 lineto
48021.2 31979.8 lineto
48077.4 32148.5 lineto
48133.7 32261 lineto
48246.2 32429.7 lineto
48302.4 32485.9 lineto
stroke
newpath
48921.1 31811 moveto
48808.6 31867.3 lineto
48752.4 31923.5 lineto
48696.1 32036 lineto
48696.1 32092.2 lineto
48752.4 32204.7 lineto
48808.6 32261 lineto
48921.1 32317.2 lineto
49146.1 32317.2 lineto
49258.5 32261 lineto
49314.8 32204.7 lineto
49371 32092.2 lineto
49371 32036 lineto
49314.8 31923.5 lineto
49258.5 31867.3 lineto
49146.1 31811 lineto
48921.1 31811 lineto
48808.6 31754.8 lineto
48752.4 31698.5 lineto
48696.1 31586.1 lineto
48696.1 31361.1 lineto
48752.4 31248.6 lineto
48808.6 31192.4 lineto
48921.1 31136.1 lineto
49146.1 31136.1 lineto
49258.5 31192.4 lineto
49314.8 31248.6 lineto
49371 31361.1 lineto
49371 31586.1 lineto
49314.8 31698.5 lineto
49258.5 31754.8 lineto
49146.1 31811 lineto
stroke
newpath
50777.1 31136.1 moveto
50777.1 32317.2 lineto
stroke
newpath
51283.3 31136.1 moveto
51283.3 31754.8 lineto
51227 31867.3 lineto
51114.6 31923.5 lineto
50945.8 31923.5 lineto
50833.3 31867.3 lineto
50777.1 31811 lineto
stroke
newpath
52014.5 31136.1 moveto
51902 31192.4 lineto
51845.7 31248.6 lineto
51789.5 31361.1 lineto
51789.5 31698.5 lineto
51845.7 31811 lineto
51902 31867.3 lineto
52014.5 31923.5 lineto
52183.2 31923.5 lineto
52295.7 31867.3 lineto
52351.9 31811 lineto
52408.2 31698.5 lineto
52408.2 31361.1 lineto
52351.9 31248.6 lineto
52295.7 31192.4 lineto
52183.2 31136.1 lineto
52014.5 31136.1 lineto
stroke
newpath
53083.1 31136.1 moveto
52970.6 31192.4 lineto
52914.3 31304.8 lineto
52914.3 32317.2 lineto
stroke
newpath
53983 31192.4 moveto
53870.5 31136.1 lineto
53645.5 31136.1 lineto
53533 31192.4 lineto
53476.8 31304.8 lineto
53476.8 31754.8 lineto
53533 31867.3 lineto
53645.5 31923.5 lineto
53870.5 31923.5 lineto
53983 31867.3 lineto
54039.2 31754.8 lineto
54039.2 31642.3 lineto
53476.8 31529.8 lineto
stroke
newpath
54489.1 31192.4 moveto
54601.6 31136.1 lineto
54826.6 31136.1 lineto
54939.1 31192.4 lineto
54995.3 31304.8 lineto
54995.3 31361.1 lineto
54939.1 31473.6 lineto
54826.6 31529.8 lineto
54657.9 31529.8 lineto
54545.4 31586.1 lineto
54489.1 31698.5 lineto
54489.1 31754.8 lineto
54545.4 31867.3 lineto
54657.9 31923.5 lineto
54826.6 31923.5 lineto
54939.1 31867.3 lineto
stroke
newpath
56401.4 31586.1 moveto
57301.3 31586.1 lineto
stroke
newpath
56851.3 31136.1 moveto
56851.3 32036 lineto
stroke
newpath
58651.1 32317.2 moveto
59382.3 32317.2 lineto
58988.6 31867.3 lineto
59157.3 31867.3 lineto
59269.8 31811 lineto
59326 31754.8 lineto
59382.3 31642.3 lineto
59382.3 31361.1 lineto
59326 31248.6 lineto
59269.8 31192.4 lineto
59157.3 31136.1 lineto
58819.9 31136.1 lineto
58707.4 31192.4 lineto
58651.1 31248.6 lineto
stroke
newpath
60732.1 31192.4 moveto
60844.6 31136.1 lineto
61069.6 31136.1 lineto
61182.1 31192.4 lineto
61238.3 31304.8 lineto
61238.3 31361.1 lineto
61182.1 31473.6 lineto
61069.6 31529.8 lineto
60900.8 31529.8 lineto
60788.4 31586.1 lineto
60732.1 31698.5 lineto
60732.1 31754.8 lineto
60788.4 31867.3 lineto
60900.8 31923.5 lineto
61069.6 31923.5 lineto
61182.1 31867.3 lineto
stroke
newpath
61913.2 31136.1 moveto
61800.7 31192.4 lineto
61744.5 31304.8 lineto
61744.5 32317.2 lineto
stroke
newpath
62531.9 31136.1 moveto
62419.4 31192.4 lineto
62363.2 31248.6 lineto
62306.9 31361.1 lineto
62306.9 31698.5 lineto
62363.2 31811 lineto
62419.4 31867.3 lineto
62531.9 31923.5 lineto
62700.6 31923.5 lineto
62813.1 31867.3 lineto
62869.3 31811 lineto
62925.6 31698.5 lineto
62925.6 31361.1 lineto
62869.3 31248.6 lineto
62813.1 31192.4 lineto
62700.6 31136.1 lineto
62531.9 31136.1 lineto
stroke
newpath
63263 31923.5 moveto
63713 31923.5 lineto
stroke
newpath
63431.8 32317.2 moveto
63431.8 31304.8 lineto
63488 31192.4 lineto
63600.5 31136.1 lineto
63713 31136.1 lineto
stroke
newpath
64050.4 31192.4 moveto
64162.9 31136.1 lineto
64387.9 31136.1 lineto
64500.4 31192.4 lineto
64556.6 31304.8 lineto
64556.6 31361.1 lineto
64500.4 31473.6 lineto
64387.9 31529.8 lineto
64219.2 31529.8 lineto
64106.7 31586.1 lineto
64050.4 31698.5 lineto
64050.4 31754.8 lineto
64106.7 31867.3 lineto
64219.2 31923.5 lineto
64387.9 31923.5 lineto
64500.4 31867.3 lineto
stroke
newpath
64950.3 30686.2 moveto
65006.6 30742.4 lineto
65119.1 30911.1 lineto
65175.3 31023.6 lineto
65231.5 31192.4 lineto
65287.8 31473.6 lineto
65287.8 31698.5 lineto
65231.5 31979.8 lineto
65175.3 32148.5 lineto
65119.1 32261 lineto
65006.6 32429.7 lineto
64950.3 32485.9 lineto
stroke
newpath
29376.9 30645.4 moveto
29376.9 29577.3 lineto
stroke
newpath
28842.8 30111.4 moveto
29911 30111.4 lineto
stroke
newpath
31598.3 29577.1 moveto
30923.3 29577.1 lineto
stroke
newpath
31260.8 29577.1 moveto
31260.8 30758.2 lineto
31148.3 30589.4 lineto
31035.8 30477 lineto
30923.3 30420.7 lineto
stroke
newpath
32104.4 29689.5 moveto
32160.7 29633.3 lineto
32104.4 29577.1 lineto
32048.2 29633.3 lineto
32104.4 29689.5 lineto
32104.4 29577.1 lineto
stroke
newpath
32610.6 30645.7 moveto
32666.9 30701.9 lineto
32779.4 30758.2 lineto
33060.6 30758.2 lineto
33173.1 30701.9 lineto
33229.3 30645.7 lineto
33285.5 30533.2 lineto
33285.5 30420.7 lineto
33229.3 30252 lineto
32554.4 29577.1 lineto
33285.5 29577.1 lineto
stroke
newpath
34016.7 30758.2 moveto
34129.2 30758.2 lineto
34241.7 30701.9 lineto
34297.9 30645.7 lineto
34354.2 30533.2 lineto
34410.4 30308.2 lineto
34410.4 30027 lineto
34354.2 29802 lineto
34297.9 29689.5 lineto
34241.7 29633.3 lineto
34129.2 29577.1 lineto
34016.7 29577.1 lineto
33904.2 29633.3 lineto
33848 29689.5 lineto
33791.7 29802 lineto
33735.5 30027 lineto
33735.5 30308.2 lineto
33791.7 30533.2 lineto
33848 30645.7 lineto
33904.2 30701.9 lineto
34016.7 30758.2 lineto
stroke
newpath
34916.6 29577.1 moveto
34916.6 30364.5 lineto
stroke
newpath
34916.6 30252 moveto
34972.8 30308.2 lineto
35085.3 30364.5 lineto
35254 30364.5 lineto
35366.5 30308.2 lineto
35422.8 30195.7 lineto
35422.8 29577.1 lineto
stroke
newpath
35422.8 30195.7 moveto
35479 30308.2 lineto
35591.5 30364.5 lineto
35760.2 30364.5 lineto
35872.7 30308.2 lineto
35929 30195.7 lineto
35929 29577.1 lineto
stroke
newpath
36491.4 29577.1 moveto
36491.4 30364.5 lineto
stroke
newpath
36491.4 30252 moveto
36547.6 30308.2 lineto
36660.1 30364.5 lineto
36828.9 30364.5 lineto
36941.3 30308.2 lineto
36997.6 30195.7 lineto
36997.6 29577.1 lineto
stroke
newpath
36997.6 30195.7 moveto
37053.8 30308.2 lineto
37166.3 30364.5 lineto
37335 30364.5 lineto
37447.5 30308.2 lineto
37503.8 30195.7 lineto
37503.8 29577.1 lineto
stroke
newpath
39809.7 30814.4 moveto
38797.4 29295.8 lineto
stroke
newpath
41328.3 30758.2 moveto
41440.8 30758.2 lineto
41553.3 30701.9 lineto
41609.5 30645.7 lineto
41665.7 30533.2 lineto
41722 30308.2 lineto
41722 30027 lineto
41665.7 29802 lineto
41609.5 29689.5 lineto
41553.3 29633.3 lineto
41440.8 29577.1 lineto
41328.3 29577.1 lineto
41215.8 29633.3 lineto
41159.6 29689.5 lineto
41103.3 29802 lineto
41047.1 30027 lineto
41047.1 30308.2 lineto
41103.3 30533.2 lineto
41159.6 30645.7 lineto
41215.8 30701.9 lineto
41328.3 30758.2 lineto
stroke
newpath
42228.2 29689.5 moveto
42284.4 29633.3 lineto
42228.2 29577.1 lineto
42171.9 29633.3 lineto
42228.2 29689.5 lineto
42228.2 29577.1 lineto
stroke
newpath
43015.6 30758.2 moveto
43128.1 30758.2 lineto
43240.5 30701.9 lineto
43296.8 30645.7 lineto
43353 30533.2 lineto
43409.3 30308.2 lineto
43409.3 30027 lineto
43353 29802 lineto
43296.8 29689.5 lineto
43240.5 29633.3 lineto
43128.1 29577.1 lineto
43015.6 29577.1 lineto
42903.1 29633.3 lineto
42846.8 29689.5 lineto
42790.6 29802 lineto
42734.4 30027 lineto
42734.4 30308.2 lineto
42790.6 30533.2 lineto
42846.8 30645.7 lineto
42903.1 30701.9 lineto
43015.6 30758.2 lineto
stroke
newpath
44421.7 30364.5 moveto
44421.7 29577.1 lineto
stroke
newpath
44140.4 30814.4 moveto
43859.2 29970.8 lineto
44590.4 29970.8 lineto
stroke
newpath
44927.8 30758.2 moveto
45715.2 30758.2 lineto
45209.1 29577.1 lineto
stroke
newpath
46108.9 30758.2 moveto
46108.9 30533.2 lineto
stroke
newpath
46558.9 30758.2 moveto
46558.9 30533.2 lineto
stroke
newpath
48302.4 29127.1 moveto
48246.2 29183.4 lineto
48133.7 29352.1 lineto
48077.4 29464.6 lineto
48021.2 29633.3 lineto
47965 29914.5 lineto
47965 30139.5 lineto
48021.2 30420.7 lineto
48077.4 30589.4 lineto
48133.7 30701.9 lineto
48246.2 30870.7 lineto
48302.4 30926.9 lineto
stroke
newpath
49258.5 30364.5 moveto
49258.5 29577.1 lineto
stroke
newpath
48977.3 30814.4 moveto
48696.1 29970.8 lineto
49427.3 29970.8 lineto
stroke
newpath
50777.1 29577.1 moveto
50777.1 30758.2 lineto
stroke
newpath
51283.3 29577.1 moveto
51283.3 30195.7 lineto
51227 30308.2 lineto
51114.6 30364.5 lineto
50945.8 30364.5 lineto
50833.3 30308.2 lineto
50777.1 30252 lineto
stroke
newpath
52014.5 29577.1 moveto
51902 29633.3 lineto
51845.7 29689.5 lineto
51789.5 29802 lineto
51789.5 30139.5 lineto
51845.7 30252 lineto
51902 30308.2 lineto
52014.5 30364.5 lineto
52183.2 30364.5 lineto
52295.7 30308.2 lineto
52351.9 30252 lineto
52408.2 30139.5 lineto
52408.2 29802 lineto
52351.9 29689.5 lineto
52295.7 29633.3 lineto
52183.2 29577.1 lineto
52014.5 29577.1 lineto
stroke
newpath
53083.1 29577.1 moveto
52970.6 29633.3 lineto
52914.3 29745.8 lineto
52914.3 30758.2 lineto
stroke
newpath
53983 29633.3 moveto
53870.5 29577.1 lineto
53645.5 29577.1 lineto
53533 29633.3 lineto
53476.8 29745.8 lineto
53476.8 30195.7 lineto
53533 30308.2 lineto
53645.5 30364.5 lineto
53870.5 30364.5 lineto
53983 30308.2 lineto
54039.2 30195.7 lineto
54039.2 30083.2 lineto
53476.8 29970.8 lineto
stroke
newpath
54489.1 29633.3 moveto
54601.6 29577.1 lineto
54826.6 29577.1 lineto
54939.1 29633.3 lineto
54995.3 29745.8 lineto
54995.3 29802 lineto
54939.1 29914.5 lineto
54826.6 29970.8 lineto
54657.9 29970.8 lineto
54545.4 30027 lineto
54489.1 30139.5 lineto
54489.1 30195.7 lineto
54545.4 30308.2 lineto
54657.9 30364.5 lineto
54826.6 30364.5 lineto
54939.1 30308.2 lineto
stroke
newpath
55389 29127.1 moveto
55445.3 29183.4 lineto
55557.8 29352.1 lineto
55614 29464.6 lineto
55670.2 29633.3 lineto
55726.5 29914.5 lineto
55726.5 30139.5 lineto
55670.2 30420.7 lineto
55614 30589.4 lineto
55557.8 30701.9 lineto
55445.3 30870.7 lineto
55389 30926.9 lineto
stroke
newpath
29493.8 27524.4 moveto
29493.8 29538.5 lineto
27479.7 29538.5 lineto
27479.7 27524.4 lineto
29493.8 27524.4 lineto
poly0
newpath
30867.1 29178.2 moveto
31598.3 29178.2 lineto
31204.6 28728.3 lineto
31373.3 28728.3 lineto
31485.8 28672 lineto
31542 28615.8 lineto
31598.3 28503.3 lineto
31598.3 28222.1 lineto
31542 28109.6 lineto
31485.8 28053.4 lineto
31373.3 27997.1 lineto
31035.8 27997.1 lineto
30923.3 28053.4 lineto
30867.1 28109.6 lineto
stroke
newpath
32104.4 28109.6 moveto
32160.7 28053.4 lineto
32104.4 27997.1 lineto
32048.2 28053.4 lineto
32104.4 28109.6 lineto
32104.4 27997.1 lineto
stroke
newpath
32610.6 29065.7 moveto
32666.9 29122 lineto
32779.4 29178.2 lineto
33060.6 29178.2 lineto
33173.1 29122 lineto
33229.3 29065.7 lineto
33285.5 28953.2 lineto
33285.5 28840.8 lineto
33229.3 28672 lineto
32554.4 27997.1 lineto
33285.5 27997.1 lineto
stroke
newpath
34016.7 29178.2 moveto
34129.2 29178.2 lineto
34241.7 29122 lineto
34297.9 29065.7 lineto
34354.2 28953.2 lineto
34410.4 28728.3 lineto
34410.4 28447.1 lineto
34354.2 28222.1 lineto
34297.9 28109.6 lineto
34241.7 28053.4 lineto
34129.2 27997.1 lineto
34016.7 27997.1 lineto
33904.2 28053.4 lineto
33848 28109.6 lineto
33791.7 28222.1 lineto
33735.5 28447.1 lineto
33735.5 28728.3 lineto
33791.7 28953.2 lineto
33848 29065.7 lineto
33904.2 29122 lineto
34016.7 29178.2 lineto
stroke
newpath
34916.6 27997.1 moveto
34916.6 28784.5 lineto
stroke
newpath
34916.6 28672 moveto
34972.8 28728.3 lineto
35085.3 28784.5 lineto
35254 28784.5 lineto
35366.5 28728.3 lineto
35422.8 28615.8 lineto
35422.8 27997.1 lineto
stroke
newpath
35422.8 28615.8 moveto
35479 28728.3 lineto
35591.5 28784.5 lineto
35760.2 28784.5 lineto
35872.7 28728.3 lineto
35929 28615.8 lineto
35929 27997.1 lineto
stroke
newpath
36491.4 27997.1 moveto
36491.4 28784.5 lineto
stroke
newpath
36491.4 28672 moveto
36547.6 28728.3 lineto
36660.1 28784.5 lineto
36828.9 28784.5 lineto
36941.3 28728.3 lineto
36997.6 28615.8 lineto
36997.6 27997.1 lineto
stroke
newpath
36997.6 28615.8 moveto
37053.8 28728.3 lineto
37166.3 28784.5 lineto
37335 28784.5 lineto
37447.5 28728.3 lineto
37503.8 28615.8 lineto
37503.8 27997.1 lineto
stroke
newpath
39809.7 29234.5 moveto
38797.4 27715.9 lineto
stroke
newpath
41328.3 29178.2 moveto
41440.8 29178.2 lineto
41553.3 29122 lineto
41609.5 29065.7 lineto
41665.7 28953.2 lineto
41722 28728.3 lineto
41722 28447.1 lineto
41665.7 28222.1 lineto
41609.5 28109.6 lineto
41553.3 28053.4 lineto
41440.8 27997.1 lineto
41328.3 27997.1 lineto
41215.8 28053.4 lineto
41159.6 28109.6 lineto
41103.3 28222.1 lineto
41047.1 28447.1 lineto
41047.1 28728.3 lineto
41103.3 28953.2 lineto
41159.6 29065.7 lineto
41215.8 29122 lineto
41328.3 29178.2 lineto
stroke
newpath
42228.2 28109.6 moveto
42284.4 28053.4 lineto
42228.2 27997.1 lineto
42171.9 28053.4 lineto
42228.2 28109.6 lineto
42228.2 27997.1 lineto
stroke
newpath
43409.3 27997.1 moveto
42734.4 27997.1 lineto
stroke
newpath
43071.8 27997.1 moveto
43071.8 29178.2 lineto
42959.3 29009.5 lineto
42846.8 28897 lineto
42734.4 28840.8 lineto
stroke
newpath
43859.2 29065.7 moveto
43915.5 29122 lineto
44028 29178.2 lineto
44309.2 29178.2 lineto
44421.7 29122 lineto
44477.9 29065.7 lineto
44534.1 28953.2 lineto
44534.1 28840.8 lineto
44477.9 28672 lineto
43803 27997.1 lineto
44534.1 27997.1 lineto
stroke
newpath
45546.5 29178.2 moveto
45321.5 29178.2 lineto
45209.1 29122 lineto
45152.8 29065.7 lineto
45040.3 28897 lineto
44984.1 28672 lineto
44984.1 28222.1 lineto
45040.3 28109.6 lineto
45096.6 28053.4 lineto
45209.1 27997.1 lineto
45434 27997.1 lineto
45546.5 28053.4 lineto
45602.8 28109.6 lineto
45659 28222.1 lineto
45659 28503.3 lineto
45602.8 28615.8 lineto
45546.5 28672 lineto
45434 28728.3 lineto
45209.1 28728.3 lineto
45096.6 28672 lineto
45040.3 28615.8 lineto
44984.1 28503.3 lineto
stroke
newpath
46108.9 29178.2 moveto
46108.9 28953.2 lineto
stroke
newpath
46558.9 29178.2 moveto
46558.9 28953.2 lineto
stroke
newpath
48302.4 27547.2 moveto
48246.2 27603.4 lineto
48133.7 27772.1 lineto
48077.4 27884.6 lineto
48021.2 28053.4 lineto
47965 28334.6 lineto
47965 28559.5 lineto
48021.2 28840.8 lineto
48077.4 29009.5 lineto
48133.7 29122 lineto
48246.2 29290.7 lineto
48302.4 29346.9 lineto
stroke
newpath
49258.5 28784.5 moveto
49258.5 27997.1 lineto
stroke
newpath
48977.3 29234.5 moveto
48696.1 28390.8 lineto
49427.3 28390.8 lineto
stroke
newpath
50777.1 27997.1 moveto
50777.1 29178.2 lineto
stroke
newpath
51283.3 27997.1 moveto
51283.3 28615.8 lineto
51227 28728.3 lineto
51114.6 28784.5 lineto
50945.8 28784.5 lineto
50833.3 28728.3 lineto
50777.1 28672 lineto
stroke
newpath
52014.5 27997.1 moveto
51902 28053.4 lineto
51845.7 28109.6 lineto
51789.5 28222.1 lineto
51789.5 28559.5 lineto
51845.7 28672 lineto
51902 28728.3 lineto
52014.5 28784.5 lineto
52183.2 28784.5 lineto
52295.7 28728.3 lineto
52351.9 28672 lineto
52408.2 28559.5 lineto
52408.2 28222.1 lineto
52351.9 28109.6 lineto
52295.7 28053.4 lineto
52183.2 27997.1 lineto
52014.5 27997.1 lineto
stroke
newpath
53083.1 27997.1 moveto
52970.6 28053.4 lineto
52914.3 28165.8 lineto
52914.3 29178.2 lineto
stroke
newpath
53983 28053.4 moveto
53870.5 27997.1 lineto
53645.5 27997.1 lineto
53533 28053.4 lineto
53476.8 28165.8 lineto
53476.8 28615.8 lineto
53533 28728.3 lineto
53645.5 28784.5 lineto
53870.5 28784.5 lineto
53983 28728.3 lineto
54039.2 28615.8 lineto
54039.2 28503.3 lineto
53476.8 28390.8 lineto
stroke
newpath
54489.1 28053.4 moveto
54601.6 27997.1 lineto
54826.6 27997.1 lineto
54939.1 28053.4 lineto
54995.3 28165.8 lineto
54995.3 28222.1 lineto
54939.1 28334.6 lineto
54826.6 28390.8 lineto
54657.9 28390.8 lineto
54545.4 28447.1 lineto
54489.1 28559.5 lineto
54489.1 28615.8 lineto
54545.4 28728.3 lineto
54657.9 28784.5 lineto
54826.6 28784.5 lineto
54939.1 28728.3 lineto
stroke
newpath
55389 27547.2 moveto
55445.3 27603.4 lineto
55557.8 27772.1 lineto
55614 27884.6 lineto
55670.2 28053.4 lineto
55726.5 28334.6 lineto
55726.5 28559.5 lineto
55670.2 28840.8 lineto
55614 29009.5 lineto
55557.8 29122 lineto
55445.3 29290.7 lineto
55389 29346.9 lineto
stroke
showpage
grestore
%%EOF
